[
  {
    "id": 1,
    "namefile": "Pdf View From Local File.pdf",
    "Description": "Lorem Ipsum is simply dummy text of the printing and typesetting industry. Lorem Ipsum has been the industry's standard dummy text ever since the 1500s, when an unknown printer took a galley of type and scrambled it to make a type specimen book. It has survived not only five",
    "Link": "#"
  },
  {
    "id": 2,
    "namefile": "Pdf View From Url.pdf",
    "Description": "Lorem Ipsum is simply dummy text of the printing and typesetting industry. Lorem Ipsum has been the industry's standard dummy text ever since the 1500s, when an unknown printer took a galley of type and scrambled it to make a type specimen book. It has survived not only five",
    "Link": "#"
  }
]